<?xml version="1.0"?>
<robot xmlns:sensor="http://playerstage.sourceforge.net/gazebo/xmlschema/#sensor"
       xmlns:controller="http://playerstage.sourceforge.net/gazebo/xmlschema/#controller"
       xmlns:interface="http://playerstage.sourceforge.net/gazebo/xmlschema/#interface"
       xmlns:xacro="http://playerstage.sourceforge.net/gazebo/xmlschema/#interface"
       name="ur10_four_circles" >

  <xacro:include filename="$(find test_hand_eye)/urdf/ur10_camera.urdf.xacro" />
  <xacro:include filename="$(find test_hand_eye)/urdf/platform_long.urdf.xacro" />
  <xacro:include filename="$(find test_hand_eye)/urdf/four_circles_jointed.urdf.xacro" />
    
  <!-- setup empty world -->
  <link name="world"/>

  <!-- platform -->
  <xacro:platform prefix="" parent="world">
    <origin xyz="0 0 0" rpy="0 0 0"/>
  </xacro:platform>

  <!-- include robot -->
  <xacro:ur10_camera prefix="" parent="platform_flange" joint_limited="false">
    <origin xyz="0 0 0" rpy="0 0 ${pi/4}"/>
  </xacro:ur10_camera>
  
  <!-- include four_circles -->
  <xacro:four_circles prefix="" parent="world">
    <origin xyz="0 0 0" rpy="0 0 0"/>
  </xacro:four_circles>

</robot>
